id,name,password,deleted_at
1,"ths10000","B10000",\N
2,"ths10001","B10001",2013-03-31 00:00:00
3,"ths10002","B10002",\N
4,"ths10003","B10003",\N
5,"ths10004","B10004",\N
6,"ths10005","B10005",\N
7,"ths10006","B10006",\N
8,"ths10007","B10007",\N
9,"ths10008","B10008",\N
10,"ths10009","B10009",\N
